hdl/fpga/.Xil/Vivado-13004-LAPTOP-SOO54604/hw_ila_data_1/zip_work/waveform.vcd
$date
        2026-Jan-08 16:47:56
$end
$version
        Vivado v2024.2 (64-bit)
$end
$timescale
        1ps
$end
$scope module dut $end
$var reg 31 " u_system/u_riscv_core/u_pipeline/pc [31:1] $end
$var reg 2 A dtm_op [1:0] $end
$var reg 41 C u_system/u_debug_block/u_debug_module/dmi_req_dat_clk [40:0] $end
$var reg 32 l dtm_addr [31:0] $end
$var reg 7 ." dtm_addr_0 [6:0] $end
$var reg 1 5" u_system/u_debug_block/debug_req $end
$var reg 2 6" u_system/u_debug_block/u_debug_module/r_fsm_cmd_error [1:0] $end
$var reg 1 8" u_system/u_debug_block/u_debug_module/u_dm_mem/fsm_cmd_busy $end
$var reg 1 9" _TRIGGER $end
$var reg 1 :" _WINDOW $end
$var reg 1 ;" _GAP $end
$upscope $end
$enddefinitions $end
#0
$dumpvars
b1000000000000000000000001101001 "
b0 A
b100010000000000000000000000000000000000 C
b0 l
b10001 ."
05"
b0 6"
08"
09"
1:"
0;"
$end
#3
b1000000000000000000000001101010 "
#8
b1000000000000000000000001101011 "
#18
b1000000000000000000000001101100 "
#23
b1000000000000000000000001101101 "
#24
b1000000000000000000000001100110 "
#29
b1000000000000000000000001100111 "
#39
b1000000000000000000000001100010 "
#40
b1000000000000000000000001101001 "
#50
b1000000000000000000000001101010 "
#55
b1000000000000000000000001101011 "
#65
b1000000000000000000000001101100 "
#70
b1000000000000000000000001101101 "
#71
b1000000000000000000000001100110 "
#76
b1000000000000000000000001100111 "
#86
b1000000000000000000000001100010 "
#87
b1000000000000000000000001101001 "
#97
b1000000000000000000000001101010 "
#102
b1000000000000000000000001101011 "
#112
b1000000000000000000000001101100 "
#117
b1000000000000000000000001101101 "
#118
b1000000000000000000000001100110 "
#123
b1000000000000000000000001100111 "
#133
b1000000000000000000000001100010 "
#134
b1000000000000000000000001101001 "
#144
b1000000000000000000000001101010 "
#149
b1000000000000000000000001101011 "
#159
b1000000000000000000000001101100 "
#164
b1000000000000000000000001101101 "
#165
b1000000000000000000000001100110 "
#170
b1000000000000000000000001100111 "
#180
b1000000000000000000000001100010 "
#181
b1000000000000000000000001101001 "
#191
b1000000000000000000000001101010 "
#196
b1000000000000000000000001101011 "
#206
b1000000000000000000000001101100 "
#211
b1000000000000000000000001101101 "
#212
b1000000000000000000000001100110 "
#217
b1000000000000000000000001100111 "
#227
b1000000000000000000000001100010 "
#228
b1000000000000000000000001101001 "
#238
b1000000000000000000000001101010 "
#243
b1000000000000000000000001101011 "
#253
b1000000000000000000000001101100 "
#258
b1000000000000000000000001101101 "
#259
b1000000000000000000000001100110 "
#264
b1000000000000000000000001100111 "
#274
b1000000000000000000000001100010 "
#275
b1000000000000000000000001101001 "
#285
b1000000000000000000000001101010 "
#290
b1000000000000000000000001101011 "
#300
b1000000000000000000000001101100 "
#305
b1000000000000000000000001101101 "
#306
b1000000000000000000000001100110 "
#311
b1000000000000000000000001100111 "
#321
b1000000000000000000000001100010 "
#322
b1000000000000000000000001101001 "
#332
b1000000000000000000000001101010 "
#337
b1000000000000000000000001101011 "
#347
b1000000000000000000000001101100 "
#352
b1000000000000000000000001101101 "
#353
b1000000000000000000000001100110 "
#358
b1000000000000000000000001100111 "
#368
b1000000000000000000000001100010 "
#369
b1000000000000000000000001101001 "
#379
b1000000000000000000000001101010 "
#384
b1000000000000000000000001101011 "
#394
b1000000000000000000000001101100 "
#399
b1000000000000000000000001101101 "
#400
b1000000000000000000000001100110 "
#405
b1000000000000000000000001100111 "
#415
b1000000000000000000000001100010 "
#416
b1000000000000000000000001101001 "
#426
b1000000000000000000000001101010 "
#431
b1000000000000000000000001101011 "
#441
b1000000000000000000000001101100 "
#446
b1000000000000000000000001101101 "
#447
b1000000000000000000000001100110 "
#452
b1000000000000000000000001100111 "
#462
b1000000000000000000000001100010 "
#463
b1000000000000000000000001101001 "
#473
b1000000000000000000000001101010 "
#478
b1000000000000000000000001101011 "
#488
b1000000000000000000000001101100 "
#493
b1000000000000000000000001101101 "
#494
b1000000000000000000000001100110 "
#499
b1000000000000000000000001100111 "
#509
b1000000000000000000000001100010 "
#510
b1000000000000000000000001101001 "
#520
b1000000000000000000000001101010 "
#525
b1000000000000000000000001101011 "
#535
b1000000000000000000000001101100 "
#540
b1000000000000000000000001101101 "
#541
b1000000000000000000000001100110 "
#546
b1000000000000000000000001100111 "
#556
b1000000000000000000000001100010 "
#557
b1000000000000000000000001101001 "
#567
b1000000000000000000000001101010 "
#572
b1000000000000000000000001101011 "
#582
b1000000000000000000000001101100 "
#587
b1000000000000000000000001101101 "
#588
b1000000000000000000000001100110 "
#593
b1000000000000000000000001100111 "
#603
b1000000000000000000000001100010 "
#604
b1000000000000000000000001101001 "
#614
b1000000000000000000000001101010 "
#619
b1000000000000000000000001101011 "
#629
b1000000000000000000000001101100 "
#634
b1000000000000000000000001101101 "
#635
b1000000000000000000000001100110 "
#640
b1000000000000000000000001100111 "
#650
b1000000000000000000000001100010 "
#651
b1000000000000000000000001101001 "
#661
b1000000000000000000000001101010 "
#666
b1000000000000000000000001101011 "
#676
b1000000000000000000000001101100 "
#681
b1000000000000000000000001101101 "
#682
b1000000000000000000000001100110 "
#687
b1000000000000000000000001100111 "
#697
b1000000000000000000000001100010 "
#698
b1000000000000000000000001101001 "
#708
b1000000000000000000000001101010 "
#713
b1000000000000000000000001101011 "
#723
b1000000000000000000000001101100 "
#728
b1000000000000000000000001101101 "
#729
b1000000000000000000000001100110 "
#734
b1000000000000000000000001100111 "
#744
b1000000000000000000000001100010 "
#745
b1000000000000000000000001101001 "
#755
b1000000000000000000000001101010 "
#760
b1000000000000000000000001101011 "
#770
b1000000000000000000000001101100 "
#775
b1000000000000000000000001101101 "
#776
b1000000000000000000000001100110 "
#781
b1000000000000000000000001100111 "
#791
b1000000000000000000000001100010 "
#792
b1000000000000000000000001101001 "
#802
b1000000000000000000000001101010 "
#807
b1000000000000000000000001101011 "
#817
b1000000000000000000000001101100 "
#822
b1000000000000000000000001101101 "
#823
b1000000000000000000000001100110 "
#828
b1000000000000000000000001100111 "
#838
b1000000000000000000000001100010 "
#839
b1000000000000000000000001101001 "
#849
b1000000000000000000000001101010 "
#854
b1000000000000000000000001101011 "
#864
b1000000000000000000000001101100 "
#869
b1000000000000000000000001101101 "
#870
b1000000000000000000000001100110 "
#875
b1000000000000000000000001100111 "
#885
b1000000000000000000000001100010 "
#886
b1000000000000000000000001101001 "
#896
b1000000000000000000000001101010 "
#901
b1000000000000000000000001101011 "
#911
b1000000000000000000000001101100 "
#916
b1000000000000000000000001101101 "
#917
b1000000000000000000000001100110 "
#922
b1000000000000000000000001100111 "
#932
b1000000000000000000000001100010 "
#933
b1000000000000000000000001101001 "
#943
b1000000000000000000000001101010 "
#948
b1000000000000000000000001101011 "
#958
b1000000000000000000000001101100 "
#963
b1000000000000000000000001101101 "
#964
b1000000000000000000000001100110 "
#969
b1000000000000000000000001100111 "
#979
b1000000000000000000000001100010 "
#980
b1000000000000000000000001101001 "
#990
b1000000000000000000000001101010 "
#995
b1000000000000000000000001101011 "
#1005
b1000000000000000000000001101100 "
#1010
b1000000000000000000000001101101 "
#1011
b1000000000000000000000001100110 "
#1016
b1000000000000000000000001100111 "
#1026
b1000000000000000000000001100010 "
#1027
b1000000000000000000000001101001 "
#1037
b1000000000000000000000001101010 "
#1042
b1000000000000000000000001101011 "
#1052
b1000000000000000000000001101100 "
#1057
b1000000000000000000000001101101 "
#1058
b1000000000000000000000001100110 "
#1063
b1000000000000000000000001100111 "
#1073
b1000000000000000000000001100010 "
#1074
b1000000000000000000000001101001 "
#1084
b1000000000000000000000001101010 "
#1089
b1000000000000000000000001101011 "
#1099
b1000000000000000000000001101100 "
#1104
b1000000000000000000000001101101 "
#1105
b1000000000000000000000001100110 "
#1110
b1000000000000000000000001100111 "
#1120
b1000000000000000000000001100010 "
#1121
b1000000000000000000000001101001 "
#1131
b1000000000000000000000001101010 "
#1136
b1000000000000000000000001101011 "
#1146
b1000000000000000000000001101100 "
#1151
b1000000000000000000000001101101 "
#1152
b1000000000000000000000001100110 "
#1157
b1000000000000000000000001100111 "
#1167
b1000000000000000000000001100010 "
#1168
b1000000000000000000000001101001 "
#1178
b1000000000000000000000001101010 "
#1183
b1000000000000000000000001101011 "
#1193
b1000000000000000000000001101100 "
#1198
b1000000000000000000000001101101 "
#1199
b1000000000000000000000001100110 "
#1204
b1000000000000000000000001100111 "
#1214
b1000000000000000000000001100010 "
#1215
b1000000000000000000000001101001 "
#1225
b1000000000000000000000001101010 "
#1230
b1000000000000000000000001101011 "
#1240
b1000000000000000000000001101100 "
#1245
b1000000000000000000000001101101 "
#1246
b1000000000000000000000001100110 "
#1251
b1000000000000000000000001100111 "
#1261
b1000000000000000000000001100010 "
#1262
b1000000000000000000000001101001 "
#1272
b1000000000000000000000001101010 "
#1277
b1000000000000000000000001101011 "
#1287
b1000000000000000000000001101100 "
#1292
b1000000000000000000000001101101 "
#1293
b1000000000000000000000001100110 "
#1298
b1000000000000000000000001100111 "
#1308
b1000000000000000000000001100010 "
#1309
b1000000000000000000000001101001 "
#1319
b1000000000000000000000001101010 "
#1324
b1000000000000000000000001101011 "
#1334
b1000000000000000000000001101100 "
#1339
b1000000000000000000000001101101 "
#1340
b1000000000000000000000001100110 "
#1345
b1000000000000000000000001100111 "
#1355
b1000000000000000000000001100010 "
#1356
b1000000000000000000000001101001 "
#1366
b1000000000000000000000001101010 "
#1371
b1000000000000000000000001101011 "
#1381
b1000000000000000000000001101100 "
#1386
b1000000000000000000000001101101 "
#1387
b1000000000000000000000001100110 "
#1392
b1000000000000000000000001100111 "
#1402
b1000000000000000000000001100010 "
#1403
b1000000000000000000000001101001 "
#1413
b1000000000000000000000001101010 "
#1418
b1000000000000000000000001101011 "
#1428
b1000000000000000000000001101100 "
#1433
b1000000000000000000000001101101 "
#1434
b1000000000000000000000001100110 "
#1439
b1000000000000000000000001100111 "
#1449
b1000000000000000000000001100010 "
#1450
b1000000000000000000000001101001 "
#1460
b1000000000000000000000001101010 "
#1465
b1000000000000000000000001101011 "
#1475
b1000000000000000000000001101100 "
#1480
b1000000000000000000000001101101 "
#1481
b1000000000000000000000001100110 "
#1486
b1000000000000000000000001100111 "
#1496
b1000000000000000000000001100010 "
#1497
b1000000000000000000000001101001 "
#1507
b1000000000000000000000001101010 "
#1512
b1000000000000000000000001101011 "
#1522
b1000000000000000000000001101100 "
#1527
b1000000000000000000000001101101 "
#1528
b1000000000000000000000001100110 "
#1533
b1000000000000000000000001100111 "
#1543
b1000000000000000000000001100010 "
#1544
b1000000000000000000000001101001 "
#1554
b1000000000000000000000001101010 "
#1559
b1000000000000000000000001101011 "
#1569
b1000000000000000000000001101100 "
#1574
b1000000000000000000000001101101 "
#1575
b1000000000000000000000001100110 "
#1580
b1000000000000000000000001100111 "
#1590
b1000000000000000000000001100010 "
#1591
b1000000000000000000000001101001 "
#1601
b1000000000000000000000001101010 "
#1606
b1000000000000000000000001101011 "
#1616
b1000000000000000000000001101100 "
#1621
b1000000000000000000000001101101 "
#1622
b1000000000000000000000001100110 "
#1627
b1000000000000000000000001100111 "
#1637
b1000000000000000000000001100010 "
#1638
b1000000000000000000000001101001 "
#1648
b1000000000000000000000001101010 "
#1653
b1000000000000000000000001101011 "
#1663
b1000000000000000000000001101100 "
#1668
b1000000000000000000000001101101 "
#1669
b1000000000000000000000001100110 "
#1674
b1000000000000000000000001100111 "
#1684
b1000000000000000000000001100010 "
#1685
b1000000000000000000000001101001 "
#1695
b1000000000000000000000001101010 "
#1700
b1000000000000000000000001101011 "
#1710
b1000000000000000000000001101100 "
#1715
b1000000000000000000000001101101 "
#1716
b1000000000000000000000001100110 "
#1721
b1000000000000000000000001100111 "
#1731
b1000000000000000000000001100010 "
#1732
b1000000000000000000000001101001 "
#1742
b1000000000000000000000001101010 "
#1747
b1000000000000000000000001101011 "
#1757
b1000000000000000000000001101100 "
#1762
b1000000000000000000000001101101 "
#1763
b1000000000000000000000001100110 "
#1768
b1000000000000000000000001100111 "
#1778
b1000000000000000000000001100010 "
#1779
b1000000000000000000000001101001 "
#1789
b1000000000000000000000001101010 "
#1794
b1000000000000000000000001101011 "
#1804
b1000000000000000000000001101100 "
#1809
b1000000000000000000000001101101 "
#1810
b1000000000000000000000001100110 "
#1815
b1000000000000000000000001100111 "
#1825
b1000000000000000000000001100010 "
#1826
b1000000000000000000000001101001 "
#1836
b1000000000000000000000001101010 "
#1841
b1000000000000000000000001101011 "
#1851
b1000000000000000000000001101100 "
#1856
b1000000000000000000000001101101 "
#1857
b1000000000000000000000001100110 "
#1862
b1000000000000000000000001100111 "
#1872
b1000000000000000000000001100010 "
#1873
b1000000000000000000000001101001 "
#1883
b1000000000000000000000001101010 "
#1888
b1000000000000000000000001101011 "
#1898
b1000000000000000000000001101100 "
#1903
b1000000000000000000000001101101 "
#1904
b1000000000000000000000001100110 "
#1909
b1000000000000000000000001100111 "
#1919
b1000000000000000000000001100010 "
#1920
b1000000000000000000000001101001 "
#1930
b1000000000000000000000001101010 "
#1935
b1000000000000000000000001101011 "
#1945
b1000000000000000000000001101100 "
#1950
b1000000000000000000000001101101 "
#1951
b1000000000000000000000001100110 "
#1956
b1000000000000000000000001100111 "
#1966
b1000000000000000000000001100010 "
#1967
b1000000000000000000000001101001 "
#1977
b1000000000000000000000001101010 "
#1982
b1000000000000000000000001101011 "
#1992
b1000000000000000000000001101100 "
#1997
b1000000000000000000000001101101 "
#1998
b1000000000000000000000001100110 "
#2003
b1000000000000000000000001100111 "
#2013
b1000000000000000000000001100010 "
#2014
b1000000000000000000000001101001 "
#2024
b1000000000000000000000001101010 "
#2029
b1000000000000000000000001101011 "
#2039
b1000000000000000000000001101100 "
#2044
b1000000000000000000000001101101 "
#2045
b1000000000000000000000001100110 "
#2050
b1000000000000000000000001100111 "
#2060
b1000000000000000000000001100010 "
#2061
b1000000000000000000000001101001 "
#2071
b1000000000000000000000001101010 "
#2076
b1000000000000000000000001101011 "
#2086
b1000000000000000000000001101100 "
#2091
b1000000000000000000000001101101 "
#2092
b1000000000000000000000001100110 "
#2097
b1000000000000000000000001100111 "
#2107
b1000000000000000000000001100010 "
#2108
b1000000000000000000000001101001 "
#2118
b1000000000000000000000001101010 "
#2123
b1000000000000000000000001101011 "
#2133
b1000000000000000000000001101100 "
#2138
b1000000000000000000000001101101 "
#2139
b1000000000000000000000001100110 "
#2144
b1000000000000000000000001100111 "
#2154
b1000000000000000000000001100010 "
#2155
b1000000000000000000000001101001 "
#2165
b1000000000000000000000001101010 "
#2170
b1000000000000000000000001101011 "
#2180
b1000000000000000000000001101100 "
#2185
b1000000000000000000000001101101 "
#2186
b1000000000000000000000001100110 "
#2191
b1000000000000000000000001100111 "
#2201
b1000000000000000000000001100010 "
#2202
b1000000000000000000000001101001 "
#2212
b1000000000000000000000001101010 "
#2217
b1000000000000000000000001101011 "
#2227
b1000000000000000000000001101100 "
#2232
b1000000000000000000000001101101 "
#2233
b1000000000000000000000001100110 "
#2238
b1000000000000000000000001100111 "
#2248
b1000000000000000000000001100010 "
#2249
b1000000000000000000000001101001 "
#2259
b1000000000000000000000001101010 "
#2264
b1000000000000000000000001101011 "
#2274
b1000000000000000000000001101100 "
#2279
b1000000000000000000000001101101 "
#2280
b1000000000000000000000001100110 "
#2285
b1000000000000000000000001100111 "
#2295
b1000000000000000000000001100010 "
#2296
b1000000000000000000000001101001 "
#2306
b1000000000000000000000001101010 "
#2311
b1000000000000000000000001101011 "
#2321
b1000000000000000000000001101100 "
#2326
b1000000000000000000000001101101 "
#2327
b1000000000000000000000001100110 "
#2332
b1000000000000000000000001100111 "
#2342
b1000000000000000000000001100010 "
#2343
b1000000000000000000000001101001 "
#2353
b1000000000000000000000001101010 "
#2358
b1000000000000000000000001101011 "
#2368
b1000000000000000000000001101100 "
#2373
b1000000000000000000000001101101 "
#2374
b1000000000000000000000001100110 "
#2379
b1000000000000000000000001100111 "
#2389
b1000000000000000000000001100010 "
#2390
b1000000000000000000000001101001 "
#2400
b1000000000000000000000001101010 "
#2405
b1000000000000000000000001101011 "
#2415
b1000000000000000000000001101100 "
#2420
b1000000000000000000000001101101 "
#2421
b1000000000000000000000001100110 "
#2426
b1000000000000000000000001100111 "
#2436
b1000000000000000000000001100010 "
#2437
b1000000000000000000000001101001 "
#2447
b1000000000000000000000001101010 "
#2452
b1000000000000000000000001101011 "
#2462
b1000000000000000000000001101100 "
#2467
b1000000000000000000000001101101 "
#2468
b1000000000000000000000001100110 "
#2473
b1000000000000000000000001100111 "
#2483
b1000000000000000000000001100010 "
#2484
b1000000000000000000000001101001 "
#2494
b1000000000000000000000001101010 "
#2499
b1000000000000000000000001101011 "
#2509
b1000000000000000000000001101100 "
#2514
b1000000000000000000000001101101 "
#2515
b1000000000000000000000001100110 "
#2520
b1000000000000000000000001100111 "
#2530
b1000000000000000000000001100010 "
#2531
b1000000000000000000000001101001 "
#2541
b1000000000000000000000001101010 "
#2546
b1000000000000000000000001101011 "
#2556
b1000000000000000000000001101100 "
#2561
b1000000000000000000000001101101 "
#2562
b1000000000000000000000001100110 "
#2567
b1000000000000000000000001100111 "
#2577
b1000000000000000000000001100010 "
#2578
b1000000000000000000000001101001 "
#2588
b1000000000000000000000001101010 "
#2593
b1000000000000000000000001101011 "
#2603
b1000000000000000000000001101100 "
#2608
b1000000000000000000000001101101 "
#2609
b1000000000000000000000001100110 "
#2614
b1000000000000000000000001100111 "
#2624
b1000000000000000000000001100010 "
#2625
b1000000000000000000000001101001 "
#2635
b1000000000000000000000001101010 "
#2640
b1000000000000000000000001101011 "
#2650
b1000000000000000000000001101100 "
#2655
b1000000000000000000000001101101 "
#2656
b1000000000000000000000001100110 "
#2661
b1000000000000000000000001100111 "
#2671
b1000000000000000000000001100010 "
#2672
b1000000000000000000000001101001 "
#2682
b1000000000000000000000001101010 "
#2687
b1000000000000000000000001101011 "
#2697
b1000000000000000000000001101100 "
#2702
b1000000000000000000000001101101 "
#2703
b1000000000000000000000001100110 "
#2708
b1000000000000000000000001100111 "
#2718
b1000000000000000000000001100010 "
#2719
b1000000000000000000000001101001 "
#2729
b1000000000000000000000001101010 "
#2734
b1000000000000000000000001101011 "
#2744
b1000000000000000000000001101100 "
#2749
b1000000000000000000000001101101 "
#2750
b1000000000000000000000001100110 "
#2755
b1000000000000000000000001100111 "
#2765
b1000000000000000000000001100010 "
#2766
b1000000000000000000000001101001 "
#2776
b1000000000000000000000001101010 "
#2781
b1000000000000000000000001101011 "
#2791
b1000000000000000000000001101100 "
#2796
b1000000000000000000000001101101 "
#2797
b1000000000000000000000001100110 "
#2802
b1000000000000000000000001100111 "
#2812
b1000000000000000000000001100010 "
#2813
b1000000000000000000000001101001 "
#2823
b1000000000000000000000001101010 "
#2828
b1000000000000000000000001101011 "
#2838
b1000000000000000000000001101100 "
#2843
b1000000000000000000000001101101 "
#2844
b1000000000000000000000001100110 "
#2849
b1000000000000000000000001100111 "
#2859
b1000000000000000000000001100010 "
#2860
b1000000000000000000000001101001 "
#2870
b1000000000000000000000001101010 "
#2875
b1000000000000000000000001101011 "
#2885
b1000000000000000000000001101100 "
#2890
b1000000000000000000000001101101 "
#2891
b1000000000000000000000001100110 "
#2896
b1000000000000000000000001100111 "
#2906
b1000000000000000000000001100010 "
#2907
b1000000000000000000000001101001 "
#2917
b1000000000000000000000001101010 "
#2922
b1000000000000000000000001101011 "
#2932
b1000000000000000000000001101100 "
#2937
b1000000000000000000000001101101 "
#2938
b1000000000000000000000001100110 "
#2943
b1000000000000000000000001100111 "
#2953
b1000000000000000000000001100010 "
#2954
b1000000000000000000000001101001 "
#2964
b1000000000000000000000001101010 "
#2969
b1000000000000000000000001101011 "
#2979
b1000000000000000000000001101100 "
#2984
b1000000000000000000000001101101 "
#2985
b1000000000000000000000001100110 "
#2990
b1000000000000000000000001100111 "
#3000
b1000000000000000000000001100010 "
#3001
b1000000000000000000000001101001 "
#3011
b1000000000000000000000001101010 "
#3016
b1000000000000000000000001101011 "
#3026
b1000000000000000000000001101100 "
#3031
b1000000000000000000000001101101 "
#3032
b1000000000000000000000001100110 "
#3037
b1000000000000000000000001100111 "
#3047
b1000000000000000000000001100010 "
#3048
b1000000000000000000000001101001 "
#3058
b1000000000000000000000001101010 "
#3063
b1000000000000000000000001101011 "
#3073
b1000000000000000000000001101100 "
#3078
b1000000000000000000000001101101 "
#3079
b1000000000000000000000001100110 "
#3084
b1000000000000000000000001100111 "
#3094
b1000000000000000000000001100010 "
#3095
b1000000000000000000000001101001 "
#3105
b1000000000000000000000001101010 "
#3110
b1000000000000000000000001101011 "
#3120
b1000000000000000000000001101100 "
#3125
b1000000000000000000000001101101 "
#3126
b1000000000000000000000001100110 "
#3131
b1000000000000000000000001100111 "
#3141
b1000000000000000000000001100010 "
#3142
b1000000000000000000000001101001 "
#3152
b1000000000000000000000001101010 "
#3157
b1000000000000000000000001101011 "
#3167
b1000000000000000000000001101100 "
#3172
b1000000000000000000000001101101 "
#3173
b1000000000000000000000001100110 "
#3178
b1000000000000000000000001100111 "
#3188
b1000000000000000000000001100010 "
#3189
b1000000000000000000000001101001 "
#3199
b1000000000000000000000001101010 "
#3204
b1000000000000000000000001101011 "
#3214
b1000000000000000000000001101100 "
#3219
b1000000000000000000000001101101 "
#3220
b1000000000000000000000001100110 "
#3225
b1000000000000000000000001100111 "
#3235
b1000000000000000000000001100010 "
#3236
b1000000000000000000000001101001 "
#3246
b1000000000000000000000001101010 "
#3251
b1000000000000000000000001101011 "
#3261
b1000000000000000000000001101100 "
#3266
b1000000000000000000000001101101 "
#3267
b1000000000000000000000001100110 "
#3272
b1000000000000000000000001100111 "
#3282
b1000000000000000000000001100010 "
#3283
b1000000000000000000000001101001 "
#3293
b1000000000000000000000001101010 "
#3298
b1000000000000000000000001101011 "
#3308
b1000000000000000000000001101100 "
#3313
b1000000000000000000000001101101 "
#3314
b1000000000000000000000001100110 "
#3319
b1000000000000000000000001100111 "
#3329
b1000000000000000000000001100010 "
#3330
b1000000000000000000000001101001 "
#3340
b1000000000000000000000001101010 "
#3345
b1000000000000000000000001101011 "
#3355
b1000000000000000000000001101100 "
#3360
b1000000000000000000000001101101 "
#3361
b1000000000000000000000001100110 "
#3366
b1000000000000000000000001100111 "
#3376
b1000000000000000000000001100010 "
#3377
b1000000000000000000000001101001 "
#3387
b1000000000000000000000001101010 "
#3392
b1000000000000000000000001101011 "
#3402
b1000000000000000000000001101100 "
#3407
b1000000000000000000000001101101 "
#3408
b1000000000000000000000001100110 "
#3413
b1000000000000000000000001100111 "
#3423
b1000000000000000000000001100010 "
#3424
b1000000000000000000000001101001 "
#3434
b1000000000000000000000001101010 "
#3439
b1000000000000000000000001101011 "
#3449
b1000000000000000000000001101100 "
#3454
b1000000000000000000000001101101 "
#3455
b1000000000000000000000001100110 "
#3460
b1000000000000000000000001100111 "
#3470
b1000000000000000000000001100010 "
#3471
b1000000000000000000000001101001 "
#3481
b1000000000000000000000001101010 "
#3486
b1000000000000000000000001101011 "
#3496
b1000000000000000000000001101100 "
#3501
b1000000000000000000000001101101 "
#3502
b1000000000000000000000001100110 "
#3507
b1000000000000000000000001100111 "
#3517
b1000000000000000000000001100010 "
#3518
b1000000000000000000000001101001 "
#3528
b1000000000000000000000001101010 "
#3533
b1000000000000000000000001101011 "
#3543
b1000000000000000000000001101100 "
#3548
b1000000000000000000000001101101 "
#3549
b1000000000000000000000001100110 "
#3554
b1000000000000000000000001100111 "
#3564
b1000000000000000000000001100010 "
#3565
b1000000000000000000000001101001 "
#3575
b1000000000000000000000001101010 "
#3580
b1000000000000000000000001101011 "
#3590
b1000000000000000000000001101100 "
#3595
b1000000000000000000000001101101 "
#3596
b1000000000000000000000001100110 "
#3601
b1000000000000000000000001100111 "
#3611
b1000000000000000000000001100010 "
#3612
b1000000000000000000000001101001 "
#3622
b1000000000000000000000001101010 "
#3627
b1000000000000000000000001101011 "
#3637
b1000000000000000000000001101100 "
#3642
b1000000000000000000000001101101 "
#3643
b1000000000000000000000001100110 "
#3648
b1000000000000000000000001100111 "
#3658
b1000000000000000000000001100010 "
#3659
b1000000000000000000000001101001 "
#3669
b1000000000000000000000001101010 "
#3674
b1000000000000000000000001101011 "
#3684
b1000000000000000000000001101100 "
#3689
b1000000000000000000000001101101 "
#3690
b1000000000000000000000001100110 "
#3695
b1000000000000000000000001100111 "
#3705
b1000000000000000000000001100010 "
#3706
b1000000000000000000000001101001 "
#3716
b1000000000000000000000001101010 "
#3721
b1000000000000000000000001101011 "
#3731
b1000000000000000000000001101100 "
#3736
b1000000000000000000000001101101 "
#3737
b1000000000000000000000001100110 "
#3742
b1000000000000000000000001100111 "
#3752
b1000000000000000000000001100010 "
#3753
b1000000000000000000000001101001 "
#3763
b1000000000000000000000001101010 "
#3768
b1000000000000000000000001101011 "
#3778
b1000000000000000000000001101100 "
#3783
b1000000000000000000000001101101 "
#3784
b1000000000000000000000001100110 "
#3789
b1000000000000000000000001100111 "
#3799
b1000000000000000000000001100010 "
#3800
b1000000000000000000000001101001 "
#3810
b1000000000000000000000001101010 "
#3815
b1000000000000000000000001101011 "
#3825
b1000000000000000000000001101100 "
#3830
b1000000000000000000000001101101 "
#3831
b1000000000000000000000001100110 "
#3836
b1000000000000000000000001100111 "
#3846
b1000000000000000000000001100010 "
#3847
b1000000000000000000000001101001 "
#3857
b1000000000000000000000001101010 "
#3862
b1000000000000000000000001101011 "
#3872
b1000000000000000000000001101100 "
#3877
b1000000000000000000000001101101 "
#3878
b1000000000000000000000001100110 "
#3883
b1000000000000000000000001100111 "
#3893
b1000000000000000000000001100010 "
#3894
b1000000000000000000000001101001 "
#3904
b1000000000000000000000001101010 "
#3909
b1000000000000000000000001101011 "
#3919
b1000000000000000000000001101100 "
#3924
b1000000000000000000000001101101 "
#3925
b1000000000000000000000001100110 "
#3930
b1000000000000000000000001100111 "
#3940
b1000000000000000000000001100010 "
#3941
b1000000000000000000000001101001 "
#3951
b1000000000000000000000001101010 "
#3956
b1000000000000000000000001101011 "
#3966
b1000000000000000000000001101100 "
#3971
b1000000000000000000000001101101 "
#3972
b1000000000000000000000001100110 "
#3977
b1000000000000000000000001100111 "
#3987
b1000000000000000000000001100010 "
#3988
b1000000000000000000000001101001 "
#3998
b1000000000000000000000001101010 "
#4003
b1000000000000000000000001101011 "
#4013
b1000000000000000000000001101100 "
#4018
b1000000000000000000000001101101 "
#4019
b1000000000000000000000001100110 "
#4024
b1000000000000000000000001100111 "
#4034
b1000000000000000000000001100010 "
#4035
b1000000000000000000000001101001 "
#4045
b1000000000000000000000001101010 "
#4050
b1000000000000000000000001101011 "
#4060
b1000000000000000000000001101100 "
#4065
b1000000000000000000000001101101 "
#4066
b1000000000000000000000001100110 "
#4071
b1000000000000000000000001100111 "
#4081
b1000000000000000000000001100010 "
#4082
b1000000000000000000000001101001 "
#4092
b1000000000000000000000001101010 "
#4096
19"
#4097
b1000000000000000000000001101011 "
#4107
b1000000000000000000000001101100 "
#4112
b1000000000000000000000001101101 "
#4113
b1000000000000000000000001100110 "
#4118
b1000000000000000000000001100111 "
#4128
b1000000000000000000000001100010 "
#4129
b1000000000000000000000001101001 "
#4139
b1000000000000000000000001101010 "
#4144
b1000000000000000000000001101011 "
#4154
b1000000000000000000000001101100 "
#4159
b1000000000000000000000001101101 "
#4160
b1000000000000000000000001100110 "
#4165
b1000000000000000000000001100111 "
#4175
b1000000000000000000000001100010 "
#4176
b1000000000000000000000001101001 "
#4186
b1000000000000000000000001101010 "
#4191
b1000000000000000000000001101011 "
#4201
b1000000000000000000000001101100 "
#4206
b1000000000000000000000001101101 "
#4207
b1000000000000000000000001100110 "
#4212
b1000000000000000000000001100111 "
#4222
b1000000000000000000000001100010 "
#4223
b1000000000000000000000001101001 "
#4233
b1000000000000000000000001101010 "
#4238
b1000000000000000000000001101011 "
#4248
b1000000000000000000000001101100 "
#4253
b1000000000000000000000001101101 "
#4254
b1000000000000000000000001100110 "
#4259
b1000000000000000000000001100111 "
#4269
b1000000000000000000000001100010 "
#4270
b1000000000000000000000001101001 "
#4280
b1000000000000000000000001101010 "
#4285
b1000000000000000000000001101011 "
#4295
b1000000000000000000000001101100 "
#4300
b1000000000000000000000001101101 "
#4301
b1000000000000000000000001100110 "
#4306
b1000000000000000000000001100111 "
#4316
b1000000000000000000000001100010 "
#4317
b1000000000000000000000001101001 "
#4327
b1000000000000000000000001101010 "
#4332
b1000000000000000000000001101011 "
#4342
b1000000000000000000000001101100 "
#4347
b1000000000000000000000001101101 "
#4348
b1000000000000000000000001100110 "
#4353
b1000000000000000000000001100111 "
#4363
b1000000000000000000000001100010 "
#4364
b1000000000000000000000001101001 "
#4374
b1000000000000000000000001101010 "
#4379
b1000000000000000000000001101011 "
#4389
b1000000000000000000000001101100 "
#4394
b1000000000000000000000001101101 "
#4395
b1000000000000000000000001100110 "
#4400
b1000000000000000000000001100111 "
#4410
b1000000000000000000000001100010 "
#4411
b1000000000000000000000001101001 "
#4421
b1000000000000000000000001101010 "
#4426
b1000000000000000000000001101011 "
#4436
b1000000000000000000000001101100 "
#4441
b1000000000000000000000001101101 "
#4442
b1000000000000000000000001100110 "
#4447
b1000000000000000000000001100111 "
#4457
b1000000000000000000000001100010 "
#4458
b1000000000000000000000001101001 "
#4468
b1000000000000000000000001101010 "
#4473
b1000000000000000000000001101011 "
#4483
b1000000000000000000000001101100 "
#4488
b1000000000000000000000001101101 "
#4489
b1000000000000000000000001100110 "
#4494
b1000000000000000000000001100111 "
#4504
b1000000000000000000000001100010 "
#4505
b1000000000000000000000001101001 "
