hdl/fpga/.Xil/Vivado-25360-LAPTOP-SOO54604/hw_ila_data_1/zip_work/waveform.vcd
$date
        2026-Jan-09 14:01:24
$end
$version
        Vivado v2024.2 (64-bit)
$end
$timescale
        1ps
$end
$scope module dut $end
$var reg 32 " u_system/u_riscv_core/u_pipeline/u_regfile/s1 [31:0] $end
$var reg 2 B dtm_op [1:0] $end
$var reg 32 D u_system/u_riscv_core/u_pipeline/alu_a [31:0] $end
$var reg 32 d u_system/u_riscv_core/u_pipeline/u_regfile/s0 [31:0] $end
$var reg 32 &" u_system/u_riscv_core/u_pipeline/alu_b [31:0] $end
$var reg 32 F" u_system/u_riscv_core/u_pipeline/instruction [31:0] $end
$var reg 32 f" u_system/u_riscv_core/u_pipeline/pc [31:0] $end
$var reg 32 (# u_system/u_riscv_core/u_pipeline/mem_addr [31:0] $end
$var reg 1 H# u_system/u_riscv_core/u_pipeline/trap_cause_val_1 $end
$var reg 1 I# u_system/u_riscv_core/u_pipeline/trap_cause_val_2 $end
$var reg 1 J# u_system/u_riscv_core/u_pipeline/trap_cause_val $end
$var reg 3 K# u_system/u_debug_block/u_debug_module/r_fsm_cmd_error [2:0] $end
$var reg 32 N# u_system/u_debug_block/u_debug_module/u_dm_mem/progbuf3 [31:0] $end
$var reg 32 n# u_system/u_debug_block/u_debug_module/u_dm_mem/progbuf2 [31:0] $end
$var reg 32 0$ u_system/u_debug_block/u_debug_module/u_dm_mem/progbuf0 [31:0] $end
$var reg 32 P$ u_system/u_debug_block/u_debug_module/u_dm_mem/progbuf1 [31:0] $end
$var reg 32 p$ u_system/u_debug_block/u_debug_module/data0 [31:0] $end
$var reg 41 2% u_system/u_debug_block/u_debug_module/dmi_req_dat_clk [40:0] $end
$var reg 8 [% u_system/u_debug_block/u_debug_module/u_dm_mem/fsm_cmd_type [7:0] $end
$var reg 1 c% u_system/u_debug_block/debug_req $end
$var reg 1 d% u_system/u_riscv_core/u_pipeline/debug_mode_i_1_n_0 $end
$var reg 1 e% u_system/u_riscv_core/u_pipeline/debug_mode_reg_n_0 $end
$var reg 1 f% u_system/u_debug_block/u_debug_module/u_dm_mem/fsm_cmd_busy $end
$var reg 1 g% u_system/u_debug_block/u_debug_module/u_dm_mem/fsm_cmd_valid $end
$var reg 1 h% u_system/u_riscv_core/u_pipeline/instruction_valid $end
$var reg 1 i% u_system/u_riscv_core/u_pipeline/u_csr/r_step_reg_n_0 $end
$var reg 1 j% u_system/u_peripheral/uart_txd $end
$var reg 1 k% _TRIGGER $end
$var reg 1 l% _WINDOW $end
$var reg 1 m% _GAP $end
$upscope $end
$enddefinitions $end
#0
$dumpvars
b10000000100000100101010101111101 "
b0 B
b0 D
b0 d
b0 &"
b0 F"
b100000111100 f"
b0 (#
0H#
0I#
0J#
b0 K#
b10011 N#
b100000000000001110011 n#
b1001001010010000011 0$
b100000000000001110011 P$
b10000000000000000000001111100100 p$
b1000000000000000000000000000000000000 2%
b0 [%
0c%
1d%
1e%
0f%
0g%
0h%
0i%
1j%
0k%
1l%
0m%
$end
#1
b10000001000001110001100011 F"
#5
b11110001010000000010010001110011 F"
1h%
#6
b0 F"
b100001000000 f"
0h%
#9
b11110001010000000010010001110011 F"
#13
b101001000000010000110011 F"
1h%
#14
b0 F"
b100001000100 f"
0h%
#17
b101001000000010000110011 F"
#21
b1000000000001000100010000000011 F"
1h%
#22
b10000000000 &"
b0 F"
b100001001000 f"
b10000000000 (#
0h%
#30
b0 (#
#36
b1001000111010000010011 F"
1h%
#37
b10 &"
b0 F"
b100001001100 f"
0h%
#40
b1001000111010000010011 F"
#44
b11111010000001000001110011100011 F"
1h%
#45
b0 &"
b0 F"
b100000000100 f"
0h%
#46
b100001010000 f"
#49
b11111010000001000001110011100011 F"
#53
b11111101010111111111000001101111 F"
1h%
#54
b100001010000 D
b11111111111111111111111111010100 &"
b0 F"
b100000100100 f"
0h%
#57
b11111101010111111111000001101111 F"
#61
b11110001010000000010010001110011 F"
1h%
#62
b0 D
b0 &"
b0 F"
b100000101000 f"
0h%
#65
b11110001010000000010010001110011 F"
#69
b10000100001010010000000100011 F"
1h%
#70
b100000000 &"
b0 F"
b100000101100 f"
b100000000 (#
0h%
#71
b0 (#
#73
b10000100001010010000000100011 F"
#77
b101001000000010000110011 F"
1h%
#78
b0 &"
b0 F"
b100000110000 f"
0h%
#84
b101001000000010000110011 F"
#88
b1000000000001000100010000000011 F"
1h%
#89
b10000000000 &"
b0 F"
b100000110100 f"
b10000000000 (#
0h%
#97
b0 (#
#103
b101000111010000010011 F"
1h%
#104
b1 &"
b0 F"
b100000111000 f"
0h%
#107
b101000111010000010011 F"
#111
b10000001000001110001100011 F"
1h%
#112
b0 &"
b0 F"
b100000111100 f"
0h%
#115
b10000001000001110001100011 F"
#119
b11110001010000000010010001110011 F"
1h%
#120
b0 F"
b100001000000 f"
0h%
#123
b11110001010000000010010001110011 F"
#127
b101001000000010000110011 F"
1h%
#128
b0 F"
b100001000100 f"
0h%
#131
b101001000000010000110011 F"
#135
b1000000000001000100010000000011 F"
1h%
#136
b10000000000 &"
b0 F"
b100001001000 f"
b10000000000 (#
0h%
#144
b0 (#
#150
b1001000111010000010011 F"
1h%
#151
b10 &"
b0 F"
b100001001100 f"
0h%
#154
b1001000111010000010011 F"
#158
b11111010000001000001110011100011 F"
1h%
#159
b0 &"
b0 F"
b100000000100 f"
0h%
#160
b100001010000 f"
#163
b11111010000001000001110011100011 F"
#167
b11111101010111111111000001101111 F"
1h%
#168
b100001010000 D
b11111111111111111111111111010100 &"
b0 F"
b100000100100 f"
0h%
#171
b11111101010111111111000001101111 F"
#175
b11110001010000000010010001110011 F"
1h%
#176
b0 D
b0 &"
b0 F"
b100000101000 f"
0h%
#179
b11110001010000000010010001110011 F"
#183
b10000100001010010000000100011 F"
1h%
#184
b100000000 &"
b0 F"
b100000101100 f"
b100000000 (#
0h%
#185
b0 (#
#187
b10000100001010010000000100011 F"
#191
b101001000000010000110011 F"
1h%
#192
b0 &"
b0 F"
b100000110000 f"
0h%
#198
b101001000000010000110011 F"
#202
b1000000000001000100010000000011 F"
1h%
#203
b10000000000 &"
b0 F"
b100000110100 f"
b10000000000 (#
0h%
#211
b0 (#
#217
b101000111010000010011 F"
1h%
#218
b1 &"
b0 F"
b100000111000 f"
0h%
#221
b101000111010000010011 F"
#225
b10000001000001110001100011 F"
1h%
#226
b0 &"
b0 F"
b100000111100 f"
0h%
#229
b10000001000001110001100011 F"
#233
b11110001010000000010010001110011 F"
1h%
#234
b0 F"
b100001000000 f"
0h%
#237
b11110001010000000010010001110011 F"
#241
b101001000000010000110011 F"
1h%
#242
b0 F"
b100001000100 f"
0h%
#245
b101001000000010000110011 F"
#249
b1000000000001000100010000000011 F"
1h%
#250
b10000000000 &"
b0 F"
b100001001000 f"
b10000000000 (#
0h%
#258
b0 (#
#264
b1001000111010000010011 F"
1h%
#265
b10 &"
b0 F"
b100001001100 f"
0h%
#268
b1001000111010000010011 F"
#272
b11111010000001000001110011100011 F"
1h%
#273
b0 &"
b0 F"
b100000000100 f"
0h%
#274
b100001010000 f"
#277
b11111010000001000001110011100011 F"
#281
b11111101010111111111000001101111 F"
1h%
#282
b100001010000 D
b11111111111111111111111111010100 &"
b0 F"
b100000100100 f"
0h%
#285
b11111101010111111111000001101111 F"
#289
b11110001010000000010010001110011 F"
1h%
#290
b0 D
b0 &"
b0 F"
b100000101000 f"
0h%
#293
b11110001010000000010010001110011 F"
#297
b10000100001010010000000100011 F"
1h%
#298
b100000000 &"
b0 F"
b100000101100 f"
b100000000 (#
0h%
#299
b0 (#
#301
b10000100001010010000000100011 F"
#305
b101001000000010000110011 F"
1h%
#306
b0 &"
b0 F"
b100000110000 f"
0h%
#312
b101001000000010000110011 F"
#316
b1000000000001000100010000000011 F"
1h%
#317
b10000000000 &"
b0 F"
b100000110100 f"
b10000000000 (#
0h%
#325
b0 (#
#331
b101000111010000010011 F"
1h%
#332
b1 &"
b0 F"
b100000111000 f"
0h%
#335
b101000111010000010011 F"
#339
b10000001000001110001100011 F"
1h%
#340
b0 &"
b0 F"
b100000111100 f"
0h%
#343
b10000001000001110001100011 F"
#347
b11110001010000000010010001110011 F"
1h%
#348
b0 F"
b100001000000 f"
0h%
#351
b11110001010000000010010001110011 F"
#355
b101001000000010000110011 F"
1h%
#356
b0 F"
b100001000100 f"
0h%
#359
b101001000000010000110011 F"
#363
b1000000000001000100010000000011 F"
1h%
#364
b10000000000 &"
b0 F"
b100001001000 f"
b10000000000 (#
0h%
#372
b0 (#
#378
b1001000111010000010011 F"
1h%
#379
b10 &"
b0 F"
b100001001100 f"
0h%
#382
b1001000111010000010011 F"
#386
b11111010000001000001110011100011 F"
1h%
#387
b0 &"
b0 F"
b100000000100 f"
0h%
#388
b100001010000 f"
#391
b11111010000001000001110011100011 F"
#395
b11111101010111111111000001101111 F"
1h%
#396
b100001010000 D
b11111111111111111111111111010100 &"
b0 F"
b100000100100 f"
0h%
#399
b11111101010111111111000001101111 F"
#403
b11110001010000000010010001110011 F"
1h%
#404
b0 D
b0 &"
b0 F"
b100000101000 f"
0h%
#407
b11110001010000000010010001110011 F"
#411
b10000100001010010000000100011 F"
1h%
#412
b100000000 &"
b0 F"
b100000101100 f"
b100000000 (#
0h%
#413
b0 (#
#415
b10000100001010010000000100011 F"
#419
b101001000000010000110011 F"
1h%
#420
b0 &"
b0 F"
b100000110000 f"
0h%
#426
b101001000000010000110011 F"
#430
b1000000000001000100010000000011 F"
1h%
#431
b10000000000 &"
b0 F"
b100000110100 f"
b10000000000 (#
0h%
#439
b0 (#
#445
b101000111010000010011 F"
1h%
#446
b1 &"
b0 F"
b100000111000 f"
0h%
#449
b101000111010000010011 F"
#453
b10000001000001110001100011 F"
1h%
#454
b0 &"
b0 F"
b100000111100 f"
0h%
#457
b10000001000001110001100011 F"
#461
b11110001010000000010010001110011 F"
1h%
#462
b0 F"
b100001000000 f"
0h%
#465
b11110001010000000010010001110011 F"
#469
b101001000000010000110011 F"
1h%
#470
b0 F"
b100001000100 f"
0h%
#473
b101001000000010000110011 F"
#477
b1000000000001000100010000000011 F"
1h%
#478
b10000000000 &"
b0 F"
b100001001000 f"
b10000000000 (#
0h%
#486
b0 (#
#492
b1001000111010000010011 F"
1h%
#493
b10 &"
b0 F"
b100001001100 f"
0h%
#496
b1001000111010000010011 F"
#500
b11111010000001000001110011100011 F"
1h%
#501
b0 &"
b0 F"
b100000000100 f"
0h%
#502
b100001010000 f"
#505
b11111010000001000001110011100011 F"
#509
b11111101010111111111000001101111 F"
1h%
#510
b100001010000 D
b11111111111111111111111111010100 &"
b0 F"
b100000100100 f"
0h%
#513
b11111101010111111111000001101111 F"
#517
b11110001010000000010010001110011 F"
1h%
#518
b0 D
b0 &"
b0 F"
b100000101000 f"
0h%
#521
b11110001010000000010010001110011 F"
#525
b10000100001010010000000100011 F"
1h%
#526
b100000000 &"
b0 F"
b100000101100 f"
b100000000 (#
0h%
#527
b0 (#
#529
b10000100001010010000000100011 F"
#533
b101001000000010000110011 F"
1h%
#534
b0 &"
b0 F"
b100000110000 f"
0h%
#540
b101001000000010000110011 F"
#544
b1000000000001000100010000000011 F"
1h%
#545
b10000000000 &"
b0 F"
b100000110100 f"
b10000000000 (#
0h%
#553
b0 (#
#559
b101000111010000010011 F"
1h%
#560
b1 &"
b0 F"
b100000111000 f"
0h%
#563
b101000111010000010011 F"
#567
b10000001000001110001100011 F"
1h%
#568
b0 &"
b0 F"
b100000111100 f"
0h%
#571
b10000001000001110001100011 F"
#575
b11110001010000000010010001110011 F"
1h%
#576
b0 F"
b100001000000 f"
0h%
#579
b11110001010000000010010001110011 F"
#583
b101001000000010000110011 F"
1h%
#584
b0 F"
b100001000100 f"
0h%
#587
b101001000000010000110011 F"
#591
b1000000000001000100010000000011 F"
1h%
#592
b10000000000 &"
b0 F"
b100001001000 f"
b10000000000 (#
0h%
#600
b0 (#
#606
b1001000111010000010011 F"
1h%
#607
b10 &"
b0 F"
b100001001100 f"
0h%
#610
b1001000111010000010011 F"
#614
b11111010000001000001110011100011 F"
1h%
#615
b0 &"
b0 F"
b100000000100 f"
0h%
#616
b100001010000 f"
#619
b11111010000001000001110011100011 F"
#623
b11111101010111111111000001101111 F"
1h%
#624
b100001010000 D
b11111111111111111111111111010100 &"
b0 F"
b100000100100 f"
0h%
#627
b11111101010111111111000001101111 F"
#631
b11110001010000000010010001110011 F"
1h%
#632
b0 D
b0 &"
b0 F"
b100000101000 f"
0h%
#635
b11110001010000000010010001110011 F"
#639
b10000100001010010000000100011 F"
1h%
#640
b100000000 &"
b0 F"
b100000101100 f"
b100000000 (#
0h%
#641
b0 (#
#643
b10000100001010010000000100011 F"
#647
b101001000000010000110011 F"
1h%
#648
b0 &"
b0 F"
b100000110000 f"
0h%
#654
b101001000000010000110011 F"
#658
b1000000000001000100010000000011 F"
1h%
#659
b10000000000 &"
b0 F"
b100000110100 f"
b10000000000 (#
0h%
#667
b0 (#
#673
b101000111010000010011 F"
1h%
#674
b1 &"
b0 F"
b100000111000 f"
0h%
#677
b101000111010000010011 F"
#681
b10000001000001110001100011 F"
1h%
#682
b0 &"
b0 F"
b100000111100 f"
0h%
#685
b10000001000001110001100011 F"
#689
b11110001010000000010010001110011 F"
1h%
#690
b0 F"
b100001000000 f"
0h%
#693
b11110001010000000010010001110011 F"
#697
b101001000000010000110011 F"
1h%
#698
b0 F"
b100001000100 f"
0h%
#701
b101001000000010000110011 F"
#705
b1000000000001000100010000000011 F"
1h%
#706
b10000000000 &"
b0 F"
b100001001000 f"
b10000000000 (#
0h%
#714
b0 (#
#720
b1001000111010000010011 F"
1h%
#721
b10 &"
b0 F"
b100001001100 f"
0h%
#724
b1001000111010000010011 F"
#728
b11111010000001000001110011100011 F"
1h%
#729
b0 &"
b0 F"
b100000000100 f"
0h%
#730
b100001010000 f"
#733
b11111010000001000001110011100011 F"
#737
b11111101010111111111000001101111 F"
1h%
#738
b100001010000 D
b11111111111111111111111111010100 &"
b0 F"
b100000100100 f"
0h%
#741
b11111101010111111111000001101111 F"
#745
b11110001010000000010010001110011 F"
1h%
#746
b0 D
b0 &"
b0 F"
b100000101000 f"
0h%
#749
b11110001010000000010010001110011 F"
#753
b10000100001010010000000100011 F"
1h%
#754
b100000000 &"
b0 F"
b100000101100 f"
b100000000 (#
0h%
#755
b0 (#
#757
b10000100001010010000000100011 F"
#761
b101001000000010000110011 F"
1h%
#762
b0 &"
b0 F"
b100000110000 f"
0h%
#768
b101001000000010000110011 F"
#772
b1000000000001000100010000000011 F"
1h%
#773
b10000000000 &"
b0 F"
b100000110100 f"
b10000000000 (#
0h%
#781
b0 (#
#787
b101000111010000010011 F"
1h%
#788
b1 &"
b0 F"
b100000111000 f"
0h%
#791
b101000111010000010011 F"
#795
b10000001000001110001100011 F"
1h%
#796
b0 &"
b0 F"
b100000111100 f"
0h%
#799
b10000001000001110001100011 F"
#803
b11110001010000000010010001110011 F"
1h%
#804
b0 F"
b100001000000 f"
0h%
#807
b11110001010000000010010001110011 F"
#811
b101001000000010000110011 F"
1h%
#812
b0 F"
b100001000100 f"
0h%
#815
b101001000000010000110011 F"
#819
b1000000000001000100010000000011 F"
1h%
#820
b10000000000 &"
b0 F"
b100001001000 f"
b10000000000 (#
0h%
#828
b0 (#
#834
b1001000111010000010011 F"
1h%
#835
b10 &"
b0 F"
b100001001100 f"
0h%
#838
b1001000111010000010011 F"
#842
b11111010000001000001110011100011 F"
1h%
#843
b0 &"
b0 F"
b100000000100 f"
0h%
#844
b100001010000 f"
#847
b11111010000001000001110011100011 F"
#851
b11111101010111111111000001101111 F"
1h%
#852
b100001010000 D
b11111111111111111111111111010100 &"
b0 F"
b100000100100 f"
0h%
#855
b11111101010111111111000001101111 F"
#859
b11110001010000000010010001110011 F"
1h%
#860
b0 D
b0 &"
b0 F"
b100000101000 f"
0h%
#863
b11110001010000000010010001110011 F"
#867
b10000100001010010000000100011 F"
1h%
#868
b100000000 &"
b0 F"
b100000101100 f"
b100000000 (#
0h%
#869
b0 (#
#871
b10000100001010010000000100011 F"
#875
b101001000000010000110011 F"
1h%
#876
b0 &"
b0 F"
b100000110000 f"
0h%
#882
b101001000000010000110011 F"
#886
b1000000000001000100010000000011 F"
1h%
#887
b10000000000 &"
b0 F"
b100000110100 f"
b10000000000 (#
0h%
#895
b0 (#
#901
b101000111010000010011 F"
1h%
#902
b1 &"
b0 F"
b100000111000 f"
0h%
#905
b101000111010000010011 F"
#909
b10000001000001110001100011 F"
1h%
#910
b0 &"
b0 F"
b100000111100 f"
0h%
#913
b10000001000001110001100011 F"
#917
b11110001010000000010010001110011 F"
1h%
#918
b0 F"
b100001000000 f"
0h%
#921
b11110001010000000010010001110011 F"
#925
b101001000000010000110011 F"
1h%
#926
b0 F"
b100001000100 f"
0h%
#929
b101001000000010000110011 F"
#933
b1000000000001000100010000000011 F"
1h%
#934
b10000000000 &"
b0 F"
b100001001000 f"
b10000000000 (#
0h%
#942
b0 (#
#948
b1001000111010000010011 F"
1h%
#949
b10 &"
b0 F"
b100001001100 f"
0h%
#952
b1001000111010000010011 F"
#956
b11111010000001000001110011100011 F"
1h%
#957
b0 &"
b0 F"
b100000000100 f"
0h%
#958
b100001010000 f"
#961
b11111010000001000001110011100011 F"
#965
b11111101010111111111000001101111 F"
1h%
#966
b100001010000 D
b11111111111111111111111111010100 &"
b0 F"
b100000100100 f"
0h%
#969
b11111101010111111111000001101111 F"
#973
b11110001010000000010010001110011 F"
1h%
#974
b0 D
b0 &"
b0 F"
b100000101000 f"
0h%
#977
b11110001010000000010010001110011 F"
#981
b10000100001010010000000100011 F"
1h%
#982
b100000000 &"
b0 F"
b100000101100 f"
b100000000 (#
0h%
#983
b0 (#
#985
b10000100001010010000000100011 F"
#989
b101001000000010000110011 F"
1h%
#990
b0 &"
b0 F"
b100000110000 f"
0h%
#996
b101001000000010000110011 F"
#1000
b1000000000001000100010000000011 F"
1h%
#1001
b10000000000 &"
b0 F"
b100000110100 f"
b10000000000 (#
0h%
#1009
b0 (#
#1015
b101000111010000010011 F"
1h%
#1016
b1 &"
b0 F"
b100000111000 f"
0h%
#1019
b101000111010000010011 F"
#1023
b10000001000001110001100011 F"
1h%
#1024
b0 &"
b0 F"
b100000111100 f"
0h%
#1027
b10000001000001110001100011 F"
#1031
b11110001010000000010010001110011 F"
1h%
#1032
b0 F"
b100001000000 f"
0h%
#1035
b11110001010000000010010001110011 F"
#1039
b101001000000010000110011 F"
1h%
#1040
b0 F"
b100001000100 f"
0h%
#1043
b101001000000010000110011 F"
#1047
b1000000000001000100010000000011 F"
1h%
#1048
b10000000000 &"
b0 F"
b100001001000 f"
b10000000000 (#
0h%
#1056
b0 (#
#1062
b1001000111010000010011 F"
1h%
#1063
b10 &"
b0 F"
b100001001100 f"
0h%
#1066
b1001000111010000010011 F"
#1070
b11111010000001000001110011100011 F"
1h%
#1071
b0 &"
b0 F"
b100000000100 f"
0h%
#1072
b100001010000 f"
#1075
b11111010000001000001110011100011 F"
#1079
b11111101010111111111000001101111 F"
1h%
#1080
b100001010000 D
b11111111111111111111111111010100 &"
b0 F"
b100000100100 f"
0h%
#1083
b11111101010111111111000001101111 F"
#1087
b11110001010000000010010001110011 F"
1h%
#1088
b0 D
b0 &"
b0 F"
b100000101000 f"
0h%
#1091
b11110001010000000010010001110011 F"
#1095
b10000100001010010000000100011 F"
1h%
#1096
b100000000 &"
b0 F"
b100000101100 f"
b100000000 (#
0h%
#1097
b0 (#
#1099
b10000100001010010000000100011 F"
#1103
b101001000000010000110011 F"
1h%
#1104
b0 &"
b0 F"
b100000110000 f"
0h%
#1110
b101001000000010000110011 F"
#1114
b1000000000001000100010000000011 F"
1h%
#1115
b10000000000 &"
b0 F"
b100000110100 f"
b10000000000 (#
0h%
#1123
b0 (#
#1129
b101000111010000010011 F"
1h%
#1130
b1 &"
b0 F"
b100000111000 f"
0h%
#1133
b101000111010000010011 F"
#1137
b10000001000001110001100011 F"
1h%
#1138
b0 &"
b0 F"
b100000111100 f"
0h%
#1141
b10000001000001110001100011 F"
#1145
b11110001010000000010010001110011 F"
1h%
#1146
b0 F"
b100001000000 f"
0h%
#1149
b11110001010000000010010001110011 F"
#1153
b101001000000010000110011 F"
1h%
#1154
b0 F"
b100001000100 f"
0h%
#1157
b101001000000010000110011 F"
#1161
b1000000000001000100010000000011 F"
1h%
#1162
b10000000000 &"
b0 F"
b100001001000 f"
b10000000000 (#
0h%
#1170
b0 (#
#1176
b1001000111010000010011 F"
1h%
#1177
b10 &"
b0 F"
b100001001100 f"
0h%
#1180
b1001000111010000010011 F"
#1184
b11111010000001000001110011100011 F"
1h%
#1185
b0 &"
b0 F"
b100000000100 f"
0h%
#1186
b100001010000 f"
#1189
b11111010000001000001110011100011 F"
#1193
b11111101010111111111000001101111 F"
1h%
#1194
b100001010000 D
b11111111111111111111111111010100 &"
b0 F"
b100000100100 f"
0h%
#1197
b11111101010111111111000001101111 F"
#1201
b11110001010000000010010001110011 F"
1h%
#1202
b0 D
b0 &"
b0 F"
b100000101000 f"
0h%
#1205
b11110001010000000010010001110011 F"
#1209
b10000100001010010000000100011 F"
1h%
#1210
b100000000 &"
b0 F"
b100000101100 f"
b100000000 (#
0h%
#1211
b0 (#
#1213
b10000100001010010000000100011 F"
#1217
b101001000000010000110011 F"
1h%
#1218
b0 &"
b0 F"
b100000110000 f"
0h%
#1224
b101001000000010000110011 F"
#1228
b1000000000001000100010000000011 F"
1h%
#1229
b10000000000 &"
b0 F"
b100000110100 f"
b10000000000 (#
0h%
#1237
b0 (#
#1243
b101000111010000010011 F"
1h%
#1244
b1 &"
b0 F"
b100000111000 f"
0h%
#1247
b101000111010000010011 F"
#1251
b10000001000001110001100011 F"
1h%
#1252
b0 &"
b0 F"
b100000111100 f"
0h%
#1255
b10000001000001110001100011 F"
#1259
b11110001010000000010010001110011 F"
1h%
#1260
b0 F"
b100001000000 f"
0h%
#1263
b11110001010000000010010001110011 F"
#1267
b101001000000010000110011 F"
1h%
#1268
b0 F"
b100001000100 f"
0h%
#1271
b101001000000010000110011 F"
#1275
b1000000000001000100010000000011 F"
1h%
#1276
b10000000000 &"
b0 F"
b100001001000 f"
b10000000000 (#
0h%
#1284
b0 (#
#1290
b1001000111010000010011 F"
1h%
#1291
b10 &"
b0 F"
b100001001100 f"
0h%
#1294
b1001000111010000010011 F"
#1298
b11111010000001000001110011100011 F"
1h%
#1299
b0 &"
b0 F"
b100000000100 f"
0h%
#1300
b100001010000 f"
#1303
b11111010000001000001110011100011 F"
#1307
b11111101010111111111000001101111 F"
1h%
#1308
b100001010000 D
b11111111111111111111111111010100 &"
b0 F"
b100000100100 f"
0h%
#1311
b11111101010111111111000001101111 F"
#1315
b11110001010000000010010001110011 F"
1h%
#1316
b0 D
b0 &"
b0 F"
b100000101000 f"
0h%
#1319
b11110001010000000010010001110011 F"
#1323
b10000100001010010000000100011 F"
1h%
#1324
b100000000 &"
b0 F"
b100000101100 f"
b100000000 (#
0h%
#1325
b0 (#
#1327
b10000100001010010000000100011 F"
#1331
b101001000000010000110011 F"
1h%
#1332
b0 &"
b0 F"
b100000110000 f"
0h%
#1338
b101001000000010000110011 F"
#1342
b1000000000001000100010000000011 F"
1h%
#1343
b10000000000 &"
b0 F"
b100000110100 f"
b10000000000 (#
0h%
#1351
b0 (#
#1357
b101000111010000010011 F"
1h%
#1358
b1 &"
b0 F"
b100000111000 f"
0h%
#1361
b101000111010000010011 F"
#1365
b10000001000001110001100011 F"
1h%
#1366
b0 &"
b0 F"
b100000111100 f"
0h%
#1369
b10000001000001110001100011 F"
#1373
b11110001010000000010010001110011 F"
1h%
#1374
b0 F"
b100001000000 f"
0h%
#1377
b11110001010000000010010001110011 F"
#1381
b101001000000010000110011 F"
1h%
#1382
b0 F"
b100001000100 f"
0h%
#1385
b101001000000010000110011 F"
#1389
b1000000000001000100010000000011 F"
1h%
#1390
b10000000000 &"
b0 F"
b100001001000 f"
b10000000000 (#
0h%
#1398
b0 (#
#1404
b1001000111010000010011 F"
1h%
#1405
b10 &"
b0 F"
b100001001100 f"
0h%
#1408
b1001000111010000010011 F"
#1412
b11111010000001000001110011100011 F"
1h%
#1413
b0 &"
b0 F"
b100000000100 f"
0h%
#1414
b100001010000 f"
#1417
b11111010000001000001110011100011 F"
#1421
b11111101010111111111000001101111 F"
1h%
#1422
b100001010000 D
b11111111111111111111111111010100 &"
b0 F"
b100000100100 f"
0h%
#1425
b11111101010111111111000001101111 F"
#1429
b11110001010000000010010001110011 F"
1h%
#1430
b0 D
b0 &"
b0 F"
b100000101000 f"
0h%
#1433
b11110001010000000010010001110011 F"
#1437
b10000100001010010000000100011 F"
1h%
#1438
b100000000 &"
b0 F"
b100000101100 f"
b100000000 (#
0h%
#1439
b0 (#
#1441
b10000100001010010000000100011 F"
#1445
b101001000000010000110011 F"
1h%
#1446
b0 &"
b0 F"
b100000110000 f"
0h%
#1452
b101001000000010000110011 F"
#1456
b1000000000001000100010000000011 F"
1h%
#1457
b10000000000 &"
b0 F"
b100000110100 f"
b10000000000 (#
0h%
#1465
b0 (#
#1471
b101000111010000010011 F"
1h%
#1472
b1 &"
b0 F"
b100000111000 f"
0h%
#1475
b101000111010000010011 F"
#1479
b10000001000001110001100011 F"
1h%
#1480
b0 &"
b0 F"
b100000111100 f"
0h%
#1483
b10000001000001110001100011 F"
#1487
b11110001010000000010010001110011 F"
1h%
#1488
b0 F"
b100001000000 f"
0h%
#1491
b11110001010000000010010001110011 F"
#1495
b101001000000010000110011 F"
1h%
#1496
b0 F"
b100001000100 f"
0h%
#1499
b101001000000010000110011 F"
#1503
b1000000000001000100010000000011 F"
1h%
#1504
b10000000000 &"
b0 F"
b100001001000 f"
b10000000000 (#
0h%
#1512
b0 (#
#1518
b1001000111010000010011 F"
1h%
#1519
b10 &"
b0 F"
b100001001100 f"
0h%
#1522
b1001000111010000010011 F"
#1526
b11111010000001000001110011100011 F"
1h%
#1527
b0 &"
b0 F"
b100000000100 f"
0h%
#1528
b100001010000 f"
#1531
b11111010000001000001110011100011 F"
#1535
b11111101010111111111000001101111 F"
1h%
#1536
b100001010000 D
b11111111111111111111111111010100 &"
b0 F"
b100000100100 f"
0h%
#1539
b11111101010111111111000001101111 F"
#1543
b11110001010000000010010001110011 F"
1h%
#1544
b0 D
b0 &"
b0 F"
b100000101000 f"
0h%
#1547
b11110001010000000010010001110011 F"
#1551
b10000100001010010000000100011 F"
1h%
#1552
b100000000 &"
b0 F"
b100000101100 f"
b100000000 (#
0h%
#1553
b0 (#
#1555
b10000100001010010000000100011 F"
#1559
b101001000000010000110011 F"
1h%
#1560
b0 &"
b0 F"
b100000110000 f"
0h%
#1566
b101001000000010000110011 F"
#1570
b1000000000001000100010000000011 F"
1h%
#1571
b10000000000 &"
b0 F"
b100000110100 f"
b10000000000 (#
0h%
#1579
b0 (#
#1585
b101000111010000010011 F"
1h%
#1586
b1 &"
b0 F"
b100000111000 f"
0h%
#1589
b101000111010000010011 F"
#1593
b10000001000001110001100011 F"
1h%
#1594
b0 &"
b0 F"
b100000111100 f"
0h%
#1597
b10000001000001110001100011 F"
#1601
b11110001010000000010010001110011 F"
1h%
#1602
b0 F"
b100001000000 f"
0h%
#1605
b11110001010000000010010001110011 F"
#1609
b101001000000010000110011 F"
1h%
#1610
b0 F"
b100001000100 f"
0h%
#1613
b101001000000010000110011 F"
#1617
b1000000000001000100010000000011 F"
1h%
#1618
b10000000000 &"
b0 F"
b100001001000 f"
b10000000000 (#
0h%
#1626
b0 (#
#1632
b1001000111010000010011 F"
1h%
#1633
b10 &"
b0 F"
b100001001100 f"
0h%
#1636
b1001000111010000010011 F"
#1640
b11111010000001000001110011100011 F"
1h%
#1641
b0 &"
b0 F"
b100000000100 f"
0h%
#1642
b100001010000 f"
#1645
b11111010000001000001110011100011 F"
#1649
b11111101010111111111000001101111 F"
1h%
#1650
b100001010000 D
b11111111111111111111111111010100 &"
b0 F"
b100000100100 f"
0h%
#1653
b11111101010111111111000001101111 F"
#1657
b11110001010000000010010001110011 F"
1h%
#1658
b0 D
b0 &"
b0 F"
b100000101000 f"
0h%
#1661
b11110001010000000010010001110011 F"
#1665
b10000100001010010000000100011 F"
1h%
#1666
b100000000 &"
b0 F"
b100000101100 f"
b100000000 (#
0h%
#1667
b0 (#
#1669
b10000100001010010000000100011 F"
#1673
b101001000000010000110011 F"
1h%
#1674
b0 &"
b0 F"
b100000110000 f"
0h%
#1680
b101001000000010000110011 F"
#1684
b1000000000001000100010000000011 F"
1h%
#1685
b10000000000 &"
b0 F"
b100000110100 f"
b10000000000 (#
0h%
#1693
b0 (#
#1699
b101000111010000010011 F"
1h%
#1700
b1 &"
b0 F"
b100000111000 f"
0h%
#1703
b101000111010000010011 F"
#1707
b10000001000001110001100011 F"
1h%
#1708
b0 &"
b0 F"
b100000111100 f"
0h%
#1711
b10000001000001110001100011 F"
#1715
b11110001010000000010010001110011 F"
1h%
#1716
b0 F"
b100001000000 f"
0h%
#1719
b11110001010000000010010001110011 F"
#1723
b101001000000010000110011 F"
1h%
#1724
b0 F"
b100001000100 f"
0h%
#1727
b101001000000010000110011 F"
#1731
b1000000000001000100010000000011 F"
1h%
#1732
b10000000000 &"
b0 F"
b100001001000 f"
b10000000000 (#
0h%
#1740
b0 (#
#1746
b1001000111010000010011 F"
1h%
#1747
b10 &"
b0 F"
b100001001100 f"
0h%
#1750
b1001000111010000010011 F"
#1754
b11111010000001000001110011100011 F"
1h%
#1755
b0 &"
b0 F"
b100000000100 f"
0h%
#1756
b100001010000 f"
#1759
b11111010000001000001110011100011 F"
#1763
b11111101010111111111000001101111 F"
1h%
